Coding for the Humanities
…
```r
letters <- read_csv("data-raw/dvdm-correspondence-1591.csv")
```

---
# Inspect the data

Letters sent to Daniel van der Meulen from 1578 to 1592.

```r
letters
```

```
# A tibble: 424 x 5
   writer                  source    destination  year     date
   <chr>                   <chr>     <chr>       <int>    <int>
 1 Languet, Hubert         Cologne   Antwerp      1578 15781009
 2 Languet, Hubert         Ghent     Antwerp      1578 15781224
 3 Banos, Theophile de     Frankfurt Antwerp      1578       NA
 4 Oudenforte, R.          Lier      Antwerp      1580 15800402
 5 Burmania, Dominiques de Duisburg  Cologne      1580 15801010
 6 Albada, Aggaeus de      Cologne   Antwerp      1582 15820318
 7 Albada, Aggaeus de      Cologne   Antwerp      1582 15820729
 8 Goyvaerts, Hendrick     Frankfurt Antwerp      1582 15820922
 9 Burmania, Dominiques de Haarlem   Antwerp      1582 15820923
10 Albada, Aggaeus de      Cologne   Antwerp      1582 15821028
# ... with 414 more rows
```
…
---
## The pipe: %>%

Let's try to find letters sent to Bremen again with the pipe.

```r
letters %>% 
  filter(destination == "Bremen") %>% # letters to Bremen
  group_by(source) %>% # group by source
  summarise(count = n()) %>% # letters per source
  arrange(desc(count)) # most letters at the top
```

```
# A tibble: 28 x 2
   source    count
   <chr>     <int>
 1 Haarlem      58
 2 Antwerp      46
 3 Frankfurt    11
 4 Venice       11
 5 Verona        6
 6 Amsterdam     5
 7 Dordrecht     5
 8 London        5
 9 Vicenza       5
10 Delft         3
# ... with 18 more rows
```
…
```r
left_join(df1, df2, by = c("variable1" = "variable2"))
```

--
Rename one of the writer variables and join the data frames

```r
rename(per_writer, schrijver = writer) %>% 
  left_join(correspondents, by = c("schrijver" = "writer"))
```

```
# A tibble: 65 x 4
   schrijver            count kinship gender
   <chr>                <int> <chr>   <chr> 
 1 Achelen, Aelken van      1 non     male  
 2 Albada, Aggaeus de       5 non     male  
 3 Anraet, Thomas           1 non     male  
 4 Backer, Andre            1 non     male  
 5 Banos, Theophile de      4 non     male  
 6 Bastingius, Jeremias     1 non     male  
 7 Beke, Jan van der        3 df      male  
 8 Bellasi, Agostino        7 non     male  
 9 Berrewijns, Hans         1 df      male  
10 Bongars, Jacques         7 non     male  
# ... with 55 more rows
```
…
<img src="../images/tidy-data.png" width="614" style="display: block; margin: auto;" />

[Wickham and Grolemund, R for Data Science](https://r4ds.had.co.nz/tidy-data.html)

---
# What is problematic about this data?

```r
read_csv("/data-raw/barley.csv")
```

```
# A tibble: 150 x 13
    Year September October November December January February March April
   <int> <chr>     <chr>   <chr>    <chr>    <chr>   <chr>    <chr> <chr>
 1  1549 1.25      1.38    1.5      1.31     1.44    1.4      1.38  1.38 
 2  1550 1.38      1.63    1.63     1.88     1.9     1.81     1.85  2    
 3  1551 1.56      1.69    1.56     1.63     1.75    1.75     1.75  1.75 
 4  1552 1.75      2.31    2.25     2.5      2.75    3        3.25  3    
 5  1553 1.38      1.69    1.63     1.5      1.63    1.63     1.63  1.63 
 6  1554 1.63      1.63    1.81     1.88     1.75    1.75     1.75  1.56 
 7  1555 1.5       1.5     1.63     1.5      1.5     1.38     1.63  1.5  
 8  1556 1.88      1.75    1.75     2.13     2.13    -        -     -    
 9  1557 -         -       -        -        -       -        -     -    
10  1558 1.38      1.5     1.5      1.38     1.38    1.25     1.13  1    
# ... with 140 more rows, and 4 more variables: May <chr>, June <chr>,
#   July <chr>, August <chr>
```

---
# Dealing with `NA`

### What character is being used instead of `NA`?

```r
read_csv("data-raw/barley.csv", na = "-")
```

```
# A tibble: 150 x 13
    Year September October November December January February March April
   <int>     <dbl>   <dbl>    <dbl>    <dbl>   <dbl>    <dbl> <dbl> <dbl>
 1  1549      1.25    1.38     1.5      1.31    1.44     1.4   1.38  1.38
 2  1550      1.38    1.63     1.63     1.88    1.9      1.81  1.85  2   
 3  1551      1.56    1.69     1.56     1.63    1.75     1.75  1.75  1.75
 4  1552      1.75    2.31     2.25     2.5     2.75     3     3.25  3   
 5  1553      1.38    1.69     1.63     1.5     1.63     1.63  1.63  1.63
 6  1554      1.63    1.63     1.81     1.88    1.75     1.75  1.75  1.56
 7  1555      1.5     1.5      1.63     1.5     1.5      1.38  1.63  1.5 
 8  1556      1.88    1.75     1.75     2.13    2.13    NA    NA    NA   
 9  1557     NA      NA       NA       NA      NA       NA    NA    NA   
10  1558      1.38    1.5      1.5      1.38    1.38     1.25  1.13  1   
# ... with 140 more rows, and 4 more variables: May <dbl>, June <dbl>,
#   July <dbl>, August <dbl>
```
…
---
# Gather barley data frame

.pull-left[

```r
gather(barley,
       key = month,
       value = price,
       -Year)
```

```
# A tibble: 1,800 x 3
    Year month     price
   <int> <chr>     <dbl>
 1  1549 September  1.25
 2  1550 September  1.38
 3  1551 September  1.56
 4  1552 September  1.75
 5  1553 September  1.38
 6  1554 September  1.63
 7  1555 September  1.5 
 8  1556 September  1.88
 9  1557 September NA   
10  1558 September  1.38
# ... with 1,790 more rows
```
]

--

.pull-right[

```r
gather(barley,
       key = month,
       value = price,
       September:August)
```

```
# A tibble: 1,800 x 3
    Year month     price
   <int> <chr>     <dbl>
 1  1549 September  1.25
 2  1550 September  1.38
 3  1551 September  1.56
 4  1552 September  1.75
 5  1553 September  1.38
 6  1554 September  1.63
 7  1555 September  1.5 
 8  1556 September  1.88
 9  1557 September NA   
10  1558 September  1.38
# ... with 1,790 more rows
```
…
---
## 1. Create a full date with day, month, and year

--

```r
barley_long %>% 
* mutate(day = 1)
```

```
# A tibble: 1,800 x 4
    Year month     price   day
   <int> <chr>     <dbl> <dbl>
 1  1549 September  1.25     1
 2  1550 September  1.38     1
 3  1551 September  1.56     1
 4  1552 September  1.75     1
 5  1553 September  1.38     1
 6  1554 September  1.63     1
 7  1555 September  1.5      1
 8  1556 September  1.88     1
 9  1557 September NA        1
10  1558 September  1.38     1
# ... with 1,790 more rows
```

---
## 2. Unite the day, month, and year, data into a single variable

--

```r
barley_long %>% 
  mutate(day = 1) %>% 
* unite(col = date, "Year", "month", "day", sep = " ")
```

```
# A tibble: 1,800 x 2
   date             price
   <chr>            <dbl>
 1 1549 September 1  1.25
 2 1550 September 1  1.38
 3 1551 September 1  1.56
 4 1552 September 1  1.75
 5 1553 September 1  1.38
 6 1554 September 1  1.63
 7 1555 September 1  1.5 
 8 1556 September 1  1.88
 9 1557 September 1 NA   
10 1558 September 1  1.38
# ... with 1,790 more rows
```

---
## 3. Make the variable a date class with lubridate

--

```r
barley_long %>% 
  mutate(day = 1) %>% 
  unite(col = date, "Year", "month", "day", sep = " ") %>% 
* mutate(date = ymd(date))
```

```
# A tibble: 1,800 x 2
   date       price
   <date>     <dbl>
 1 1549-09-01  1.25
 2 1550-09-01  1.38
 3 1551-09-01  1.56
 4 1552-09-01  1.75
 5 1553-09-01  1.38
 6 1554-09-01  1.63
 7 1555-09-01  1.5 
 8 1556-09-01  1.88
 9 1557-09-01 NA   
10 1558-09-01  1.38
# ... with 1,790 more rows
```
---
## 4. Label the type of grain

--

```r
barley_long %>% 
  mutate(day = 1) %>% 
  unite(col = date, "Year", "month", "day", sep = " ") %>% 
  mutate(date = ymd(date)) %>% 
* mutate(grain = "barley")
```

```
# A tibble: 1,800 x 3
   date       price grain 
   <date>     <dbl> <chr> 
 1 1549-09-01  1.25 barley
 2 1550-09-01  1.38 barley
 3 1551-09-01  1.56 barley
 4 1552-09-01  1.75 barley
 5 1553-09-01  1.38 barley
 6 1554-09-01  1.63 barley
 7 1555-09-01  1.5  barley
 8 1556-09-01  1.88 barley
 9 1557-09-01 NA    barley
10 1558-09-01  1.38 barley
# ... with 1,790 more rows
```
…
---
# Bind barley, oats, and wheat data

Bind the rows of the three data frames with `bind_rows()` to create a `grain_prices` data frame.

bind_rows(barley_tidied, oats_tidied, wheat_tidied)

```r
bind_rows(barley_tidied, oats_tidied, wheat_tidied)
```

```
# A tibble: 5,400 x 3
   date       price grain 
   <date>     <dbl> <chr> 
 1 1549-09-01  1.25 barley
 2 1550-09-01  1.38 barley
 3 1551-09-01  1.56 barley
 4 1552-09-01  1.75 barley
 5 1553-09-01  1.38 barley
 6 1554-09-01  1.63 barley
 7 1555-09-01  1.5  barley
 8 1556-09-01  1.88 barley
 9 1557-09-01 NA    barley
10 1558-09-01  1.38 barley
# ... with 5,390 more rows
```
…
